\relax 
\citation{Newell:1957}
\@writefile{toc}{\contentsline {section}{\numberline {1}Introduction}{1}}
\@writefile{toc}{\contentsline {section}{\numberline {2}Linked List}{1}}
\@writefile{toc}{\contentsline {section}{\numberline {3}Benchmark set-up}{1}}
\@writefile{toc}{\contentsline {section}{\numberline {4}Results}{1}}
\bibstyle{plain}
\bibdata{bibliography}
\@writefile{toc}{\contentsline {section}{\numberline {5}Concluding remarks}{2}}
